<svg width="7" height="12" viewBox="0 0 7 12" fill="none" xmlns="http://www.w3.org/2000/svg">
    <path fill-rule="evenodd" clip-rule="evenodd" d="M-0.000543594 1.00023L0.99944 0.000244141L5.99982 5.00062L6.00002 5.00042L7 6.0004L1.0001 12.0003L0.000117779 11.0003L4.99983 6.0006L-0.000543594 1.00023Z" fill="white"/>
</svg>
