<svg width="11" height="11" viewBox="0 0 11 11" fill="none" xmlns="http://www.w3.org/2000/svg">
    <path fill-rule="evenodd" clip-rule="evenodd" d="M6 0H5V5H0V6H5V11H6V6H11V5H6V0Z" fill="white"/>
</svg>
